{
    "content": [
          {
            "id": 0,
            "name": "Select biller",
            "countryCode": "NG",
            "countryName": "Nigeria",
            "type": "",
            "serviceType": "POSTPAID",
            "localAmountSupported": true,
            "localTransactionCurrencyCode": "NGN",
            "minLocalTransactionAmount": 0.0,
            "maxLocalTransactionAmount": 0.0,
            "localTransactionFee": 112.50000,
            "localTransactionFeeCurrencyCode": "NGN",
            "localDiscountPercentage": 0.00000,
            "internationalAmountSupported": true,
            "internationalTransactionCurrencyCode": "NGN",
            "minInternationalTransactionAmount": 1000.0,
            "maxInternationalTransactionAmount": 300000.0,
            "internationalTransactionFee": 0.00000,
            "internationalTransactionFeeCurrencyCode": "NGN",
            "localTransactionFeePercentage": 0.0,
            "internationalTransactionFeePercentage": 0.0,
            "internationalDiscountPercentage": 8.00000,
            "fx": {
                "rate": 1.0,
                "currencyCode": "NGN"
            },
            "denominationType": "RANGE",
            "localFixedAmounts": null,
            "internationalFixedAmounts": null
        },
        {
            "id": 1,
            "name": "Ikeja Electricity Postpaid",
            "countryCode": "NG",
            "countryName": "Nigeria",
            "type": "ELECTRICITY_BILL_PAYMENT",
            "serviceType": "POSTPAID",
            "localAmountSupported": true,
            "localTransactionCurrencyCode": "NGN",
            "minLocalTransactionAmount": 1000.0,
            "maxLocalTransactionAmount": 300000.0,
            "localTransactionFee": 112.50000,
            "localTransactionFeeCurrencyCode": "NGN",
            "localDiscountPercentage": 0.00000,
            "internationalAmountSupported": true,
            "internationalTransactionCurrencyCode": "NGN",
            "minInternationalTransactionAmount": 1000.0,
            "maxInternationalTransactionAmount": 300000.0,
            "internationalTransactionFee": 0.00000,
            "internationalTransactionFeeCurrencyCode": "NGN",
            "localTransactionFeePercentage": 0.0,
            "internationalTransactionFeePercentage": 0.0,
            "internationalDiscountPercentage": 8.00000,
            "fx": {
                "rate": 1.0,
                "currencyCode": "NGN"
            },
            "denominationType": "RANGE",
            "localFixedAmounts": null,
            "internationalFixedAmounts": null
        },
        {
            "id": 2,
            "name": "Abuja Electricity Postpaid",
            "countryCode": "NG",
            "countryName": "Nigeria",
            "type": "ELECTRICITY_BILL_PAYMENT",
            "serviceType": "POSTPAID",
            "localAmountSupported": true,
            "localTransactionCurrencyCode": "NGN",
            "minLocalTransactionAmount": 700.0,
            "maxLocalTransactionAmount": 300000.0,
            "localTransactionFee": 112.50000,
            "localTransactionFeeCurrencyCode": "NGN",
            "localDiscountPercentage": 0.00000,
            "internationalAmountSupported": true,
            "internationalTransactionCurrencyCode": "NGN",
            "minInternationalTransactionAmount": 700.0,
            "maxInternationalTransactionAmount": 300000.0,
            "internationalTransactionFee": 0.00000,
            "internationalTransactionFeeCurrencyCode": "NGN",
            "localTransactionFeePercentage": 0.0,
            "internationalTransactionFeePercentage": 0.0,
            "internationalDiscountPercentage": 8.00000,
            "fx": {
                "rate": 1.0,
                "currencyCode": "NGN"
            },
            "denominationType": "RANGE",
            "localFixedAmounts": null,
            "internationalFixedAmounts": null
        },
        {
            "id": 3,
            "name": "Eko Electricity Prepaid",
            "countryCode": "NG",
            "countryName": "Nigeria",
            "type": "ELECTRICITY_BILL_PAYMENT",
            "serviceType": "PREPAID",
            "localAmountSupported": true,
            "localTransactionCurrencyCode": "NGN",
            "minLocalTransactionAmount": 1000.0,
            "maxLocalTransactionAmount": 300000.0,
            "localTransactionFee": 112.50000,
            "localTransactionFeeCurrencyCode": "NGN",
            "localDiscountPercentage": 0.00000,
            "internationalAmountSupported": true,
            "internationalTransactionCurrencyCode": "NGN",
            "minInternationalTransactionAmount": 1000.0,
            "maxInternationalTransactionAmount": 300000.0,
            "internationalTransactionFee": 112.50000,
            "internationalTransactionFeeCurrencyCode": "NGN",
            "localTransactionFeePercentage": 0.0,
            "internationalTransactionFeePercentage": 0.0,
            "internationalDiscountPercentage": 8.00000,
            "fx": {
                "rate": 1.0,
                "currencyCode": "NGN"
            },
            "denominationType": "RANGE",
            "localFixedAmounts": null,
            "internationalFixedAmounts": null
        },
        {
            "id": 4,
            "name": "Eko Electricity Postpaid",
            "countryCode": "NG",
            "countryName": "Nigeria",
            "type": "ELECTRICITY_BILL_PAYMENT",
            "serviceType": "POSTPAID",
            "localAmountSupported": true,
            "localTransactionCurrencyCode": "NGN",
            "minLocalTransactionAmount": 1000.0,
            "maxLocalTransactionAmount": 300000.0,
            "localTransactionFee": 112.50000,
            "localTransactionFeeCurrencyCode": "NGN",
            "localDiscountPercentage": 0.00000,
            "internationalAmountSupported": true,
            "internationalTransactionCurrencyCode": "NGN",
            "minInternationalTransactionAmount": 1000.0,
            "maxInternationalTransactionAmount": 300000.0,
            "internationalTransactionFee": 0.00000,
            "internationalTransactionFeeCurrencyCode": "NGN",
            "localTransactionFeePercentage": 0.0,
            "internationalTransactionFeePercentage": 0.0,
            "internationalDiscountPercentage": 8.00000,
            "fx": {
                "rate": 1.0,
                "currencyCode": "NGN"
            },
            "denominationType": "RANGE",
            "localFixedAmounts": null,
            "internationalFixedAmounts": null
        },
        {
            "id": 5,
            "name": "Ikeja Electricity Prepaid",
            "countryCode": "NG",
            "countryName": "Nigeria",
            "type": "ELECTRICITY_BILL_PAYMENT",
            "serviceType": "PREPAID",
            "localAmountSupported": true,
            "localTransactionCurrencyCode": "NGN",
            "minLocalTransactionAmount": 1000.0,
            "maxLocalTransactionAmount": 300000.0,
            "localTransactionFee": 112.50000,
            "localTransactionFeeCurrencyCode": "NGN",
            "localDiscountPercentage": 0.00000,
            "internationalAmountSupported": true,
            "internationalTransactionCurrencyCode": "NGN",
            "minInternationalTransactionAmount": 1000.0,
            "maxInternationalTransactionAmount": 300000.0,
            "internationalTransactionFee": 0.00000,
            "internationalTransactionFeeCurrencyCode": "NGN",
            "localTransactionFeePercentage": 0.0,
            "internationalTransactionFeePercentage": 0.0,
            "internationalDiscountPercentage": 8.00000,
            "fx": {
                "rate": 1.0,
                "currencyCode": "NGN"
            },
            "denominationType": "RANGE",
            "localFixedAmounts": null,
            "internationalFixedAmounts": null
        },
        {
            "id": 6,
            "name": "Abuja Electricity Prepaid",
            "countryCode": "NG",
            "countryName": "Nigeria",
            "type": "ELECTRICITY_BILL_PAYMENT",
            "serviceType": "PREPAID",
            "localAmountSupported": true,
            "localTransactionCurrencyCode": "NGN",
            "minLocalTransactionAmount": 700.0,
            "maxLocalTransactionAmount": 300000.0,
            "localTransactionFee": 112.50000,
            "localTransactionFeeCurrencyCode": "NGN",
            "localDiscountPercentage": 0.00000,
            "internationalAmountSupported": true,
            "internationalTransactionCurrencyCode": "NGN",
            "minInternationalTransactionAmount": 700.0,
            "maxInternationalTransactionAmount": 300000.0,
            "internationalTransactionFee": 0.00000,
            "internationalTransactionFeeCurrencyCode": "NGN",
            "localTransactionFeePercentage": 0.0,
            "internationalTransactionFeePercentage": 0.0,
            "internationalDiscountPercentage": 8.00000,
            "fx": {
                "rate": 1.0,
                "currencyCode": "NGN"
            },
            "denominationType": "RANGE",
            "localFixedAmounts": null,
            "internationalFixedAmounts": null
        },
        {
            "id": 7,
            "name": "Ibadan Electricity Postpaid",
            "countryCode": "NG",
            "countryName": "Nigeria",
            "type": "ELECTRICITY_BILL_PAYMENT",
            "serviceType": "POSTPAID",
            "localAmountSupported": true,
            "localTransactionCurrencyCode": "NGN",
            "minLocalTransactionAmount": 500.0,
            "maxLocalTransactionAmount": 300000.0,
            "localTransactionFee": 112.50000,
            "localTransactionFeeCurrencyCode": "NGN",
            "localDiscountPercentage": 0.00000,
            "internationalAmountSupported": true,
            "internationalTransactionCurrencyCode": "NGN",
            "minInternationalTransactionAmount": 500.0,
            "maxInternationalTransactionAmount": 300000.0,
            "internationalTransactionFee": 0.00000,
            "internationalTransactionFeeCurrencyCode": "NGN",
            "localTransactionFeePercentage": 0.0,
            "internationalTransactionFeePercentage": 0.0,
            "internationalDiscountPercentage": 8.00000,
            "fx": {
                "rate": 1.0,
                "currencyCode": "NGN"
            },
            "denominationType": "RANGE",
            "localFixedAmounts": null,
            "internationalFixedAmounts": null
        },
        {
            "id": 8,
            "name": "Ibadan Electricity Prepaid",
            "countryCode": "NG",
            "countryName": "Nigeria",
            "type": "ELECTRICITY_BILL_PAYMENT",
            "serviceType": "PREPAID",
            "localAmountSupported": true,
            "localTransactionCurrencyCode": "NGN",
            "minLocalTransactionAmount": 500.0,
            "maxLocalTransactionAmount": 300000.0,
            "localTransactionFee": 112.50000,
            "localTransactionFeeCurrencyCode": "NGN",
            "localDiscountPercentage": 0.00000,
            "internationalAmountSupported": true,
            "internationalTransactionCurrencyCode": "NGN",
            "minInternationalTransactionAmount": 500.0,
            "maxInternationalTransactionAmount": 300000.0,
            "internationalTransactionFee": 0.00000,
            "internationalTransactionFeeCurrencyCode": "NGN",
            "localTransactionFeePercentage": 0.0,
            "internationalTransactionFeePercentage": 0.0,
            "internationalDiscountPercentage": 8.00000,
            "fx": {
                "rate": 1.0,
                "currencyCode": "NGN"
            },
            "denominationType": "RANGE",
            "localFixedAmounts": null,
            "internationalFixedAmounts": null
        },
        {
            "id": 9,
            "name": "Enugu Electricity Postpaid",
            "countryCode": "NG",
            "countryName": "Nigeria",
            "type": "ELECTRICITY_BILL_PAYMENT",
            "serviceType": "POSTPAID",
            "localAmountSupported": true,
            "localTransactionCurrencyCode": "NGN",
            "minLocalTransactionAmount": 500.0,
            "maxLocalTransactionAmount": 300000.0,
            "localTransactionFee": 112.50000,
            "localTransactionFeeCurrencyCode": "NGN",
            "localDiscountPercentage": 0.00000,
            "internationalAmountSupported": true,
            "internationalTransactionCurrencyCode": "NGN",
            "minInternationalTransactionAmount": 500.0,
            "maxInternationalTransactionAmount": 300000.0,
            "internationalTransactionFee": 0.00000,
            "internationalTransactionFeeCurrencyCode": "NGN",
            "localTransactionFeePercentage": 0.0,
            "internationalTransactionFeePercentage": 0.0,
            "internationalDiscountPercentage": 8.00000,
            "fx": {
                "rate": 1.0,
                "currencyCode": "NGN"
            },
            "denominationType": "RANGE",
            "localFixedAmounts": null,
            "internationalFixedAmounts": null
        },
        {
            "id": 10,
            "name": "Enugu Electricity Prepaid",
            "countryCode": "NG",
            "countryName": "Nigeria",
            "type": "ELECTRICITY_BILL_PAYMENT",
            "serviceType": "PREPAID",
            "localAmountSupported": true,
            "localTransactionCurrencyCode": "NGN",
            "minLocalTransactionAmount": 500.0,
            "maxLocalTransactionAmount": 300000.0,
            "localTransactionFee": 112.50000,
            "localTransactionFeeCurrencyCode": "NGN",
            "localDiscountPercentage": 0.00000,
            "internationalAmountSupported": true,
            "internationalTransactionCurrencyCode": "NGN",
            "minInternationalTransactionAmount": 500.0,
            "maxInternationalTransactionAmount": 300000.0,
            "internationalTransactionFee": 0.00000,
            "internationalTransactionFeeCurrencyCode": "NGN",
            "localTransactionFeePercentage": 0.0,
            "internationalTransactionFeePercentage": 0.0,
            "internationalDiscountPercentage": 8.00000,
            "fx": {
                "rate": 1.0,
                "currencyCode": "NGN"
            },
            "denominationType": "RANGE",
            "localFixedAmounts": null,
            "internationalFixedAmounts": null
        },
        {
            "id": 11,
            "name": "Port Harcourt Electricity Postpaid",
            "countryCode": "NG",
            "countryName": "Nigeria",
            "type": "ELECTRICITY_BILL_PAYMENT",
            "serviceType": "POSTPAID",
            "localAmountSupported": true,
            "localTransactionCurrencyCode": "NGN",
            "minLocalTransactionAmount": 500.0,
            "maxLocalTransactionAmount": 300000.0,
            "localTransactionFee": 112.50000,
            "localTransactionFeeCurrencyCode": "NGN",
            "localDiscountPercentage": 0.00000,
            "internationalAmountSupported": true,
            "internationalTransactionCurrencyCode": "NGN",
            "minInternationalTransactionAmount": 500.0,
            "maxInternationalTransactionAmount": 300000.0,
            "internationalTransactionFee": 0.00000,
            "internationalTransactionFeeCurrencyCode": "NGN",
            "localTransactionFeePercentage": 0.0,
            "internationalTransactionFeePercentage": 0.0,
            "internationalDiscountPercentage": 8.00000,
            "fx": {
                "rate": 1.0,
                "currencyCode": "NGN"
            },
            "denominationType": "RANGE",
            "localFixedAmounts": null,
            "internationalFixedAmounts": null
        },
        {
            "id": 12,
            "name": "Port Harcourt Electricity Prepaid",
            "countryCode": "NG",
            "countryName": "Nigeria",
            "type": "ELECTRICITY_BILL_PAYMENT",
            "serviceType": "PREPAID",
            "localAmountSupported": true,
            "localTransactionCurrencyCode": "NGN",
            "minLocalTransactionAmount": 500.0,
            "maxLocalTransactionAmount": 300000.0,
            "localTransactionFee": 112.50000,
            "localTransactionFeeCurrencyCode": "NGN",
            "localDiscountPercentage": 0.00000,
            "internationalAmountSupported": true,
            "internationalTransactionCurrencyCode": "NGN",
            "minInternationalTransactionAmount": 500.0,
            "maxInternationalTransactionAmount": 300000.0,
            "internationalTransactionFee": 0.00000,
            "internationalTransactionFeeCurrencyCode": "NGN",
            "localTransactionFeePercentage": 0.0,
            "internationalTransactionFeePercentage": 0.0,
            "internationalDiscountPercentage": 8.00000,
            "fx": {
                "rate": 1.0,
                "currencyCode": "NGN"
            },
            "denominationType": "RANGE",
            "localFixedAmounts": null,
            "internationalFixedAmounts": null
        },
        {
            "id": 13,
            "name": "Kano Electricity Postpaid",
            "countryCode": "NG",
            "countryName": "Nigeria",
            "type": "ELECTRICITY_BILL_PAYMENT",
            "serviceType": "POSTPAID",
            "localAmountSupported": true,
            "localTransactionCurrencyCode": "NGN",
            "minLocalTransactionAmount": 500.0,
            "maxLocalTransactionAmount": 300000.0,
            "localTransactionFee": 112.50000,
            "localTransactionFeeCurrencyCode": "NGN",
            "localDiscountPercentage": 0.00000,
            "internationalAmountSupported": true,
            "internationalTransactionCurrencyCode": "NGN",
            "minInternationalTransactionAmount": 500.0,
            "maxInternationalTransactionAmount": 300000.0,
            "internationalTransactionFee": 0.00000,
            "internationalTransactionFeeCurrencyCode": "NGN",
            "localTransactionFeePercentage": 0.0,
            "internationalTransactionFeePercentage": 0.0,
            "internationalDiscountPercentage": 8.00000,
            "fx": {
                "rate": 1.0,
                "currencyCode": "NGN"
            },
            "denominationType": "RANGE",
            "localFixedAmounts": null,
            "internationalFixedAmounts": null
        },
        {
            "id": 14,
            "name": "Kano Electricity Prepaid",
            "countryCode": "NG",
            "countryName": "Nigeria",
            "type": "ELECTRICITY_BILL_PAYMENT",
            "serviceType": "PREPAID",
            "localAmountSupported": true,
            "localTransactionCurrencyCode": "NGN",
            "minLocalTransactionAmount": 500.0,
            "maxLocalTransactionAmount": 300000.0,
            "localTransactionFee": 112.50000,
            "localTransactionFeeCurrencyCode": "NGN",
            "localDiscountPercentage": 0.00000,
            "internationalAmountSupported": true,
            "internationalTransactionCurrencyCode": "NGN",
            "minInternationalTransactionAmount": 500.0,
            "maxInternationalTransactionAmount": 300000.0,
            "internationalTransactionFee": 0.00000,
            "internationalTransactionFeeCurrencyCode": "NGN",
            "localTransactionFeePercentage": 0.0,
            "internationalTransactionFeePercentage": 0.0,
            "internationalDiscountPercentage": 8.00000,
            "fx": {
                "rate": 1.0,
                "currencyCode": "NGN"
            },
            "denominationType": "RANGE",
            "localFixedAmounts": null,
            "internationalFixedAmounts": null
        },
        {
            "id": 15,
            "name": "Kaduna Electricity Postpaid",
            "countryCode": "NG",
            "countryName": "Nigeria",
            "type": "ELECTRICITY_BILL_PAYMENT",
            "serviceType": "POSTPAID",
            "localAmountSupported": true,
            "localTransactionCurrencyCode": "NGN",
            "minLocalTransactionAmount": 500.0,
            "maxLocalTransactionAmount": 300000.0,
            "localTransactionFee": 112.50000,
            "localTransactionFeeCurrencyCode": "NGN",
            "localDiscountPercentage": 0.00000,
            "internationalAmountSupported": true,
            "internationalTransactionCurrencyCode": "NGN",
            "minInternationalTransactionAmount": 500.0,
            "maxInternationalTransactionAmount": 300000.0,
            "internationalTransactionFee": 0.00000,
            "internationalTransactionFeeCurrencyCode": "NGN",
            "localTransactionFeePercentage": 0.0,
            "internationalTransactionFeePercentage": 0.0,
            "internationalDiscountPercentage": 8.00000,
            "fx": {
                "rate": 1.0,
                "currencyCode": "NGN"
            },
            "denominationType": "RANGE",
            "localFixedAmounts": null,
            "internationalFixedAmounts": null
        },
        {
            "id": 16,
            "name": "Kaduna Electricity Prepaid",
            "countryCode": "NG",
            "countryName": "Nigeria",
            "type": "ELECTRICITY_BILL_PAYMENT",
            "serviceType": "PREPAID",
            "localAmountSupported": true,
            "localTransactionCurrencyCode": "NGN",
            "minLocalTransactionAmount": 500.0,
            "maxLocalTransactionAmount": 300000.0,
            "localTransactionFee": 112.50000,
            "localTransactionFeeCurrencyCode": "NGN",
            "localDiscountPercentage": 0.00000,
            "internationalAmountSupported": true,
            "internationalTransactionCurrencyCode": "NGN",
            "minInternationalTransactionAmount": 500.0,
            "maxInternationalTransactionAmount": 300000.0,
            "internationalTransactionFee": 0.00000,
            "internationalTransactionFeeCurrencyCode": "NGN",
            "localTransactionFeePercentage": 0.0,
            "internationalTransactionFeePercentage": 0.0,
            "internationalDiscountPercentage": 8.00000,
            "fx": {
                "rate": 1.0,
                "currencyCode": "NGN"
            },
            "denominationType": "RANGE",
            "localFixedAmounts": null,
            "internationalFixedAmounts": null
        },
        {
            "id": 17,
            "name": "Jos Electricity Postpaid",
            "countryCode": "NG",
            "countryName": "Nigeria",
            "type": "ELECTRICITY_BILL_PAYMENT",
            "serviceType": "POSTPAID",
            "localAmountSupported": true,
            "localTransactionCurrencyCode": "NGN",
            "minLocalTransactionAmount": 500.0,
            "maxLocalTransactionAmount": 300000.0,
            "localTransactionFee": 112.50000,
            "localTransactionFeeCurrencyCode": "NGN",
            "localDiscountPercentage": 0.00000,
            "internationalAmountSupported": true,
            "internationalTransactionCurrencyCode": "NGN",
            "minInternationalTransactionAmount": 500.0,
            "maxInternationalTransactionAmount": 300000.0,
            "internationalTransactionFee": 0.00000,
            "internationalTransactionFeeCurrencyCode": "NGN",
            "localTransactionFeePercentage": 0.0,
            "internationalTransactionFeePercentage": 0.0,
            "internationalDiscountPercentage": 8.00000,
            "fx": {
                "rate": 1.0,
                "currencyCode": "NGN"
            },
            "denominationType": "RANGE",
            "localFixedAmounts": null,
            "internationalFixedAmounts": null
        },
        {
            "id": 18,
            "name": "Jos Electricity Prepaid",
            "countryCode": "NG",
            "countryName": "Nigeria",
            "type": "ELECTRICITY_BILL_PAYMENT",
            "serviceType": "PREPAID",
            "localAmountSupported": true,
            "localTransactionCurrencyCode": "NGN",
            "minLocalTransactionAmount": 500.0,
            "maxLocalTransactionAmount": 300000.0,
            "localTransactionFee": 112.50000,
            "localTransactionFeeCurrencyCode": "NGN",
            "localDiscountPercentage": 0.00000,
            "internationalAmountSupported": true,
            "internationalTransactionCurrencyCode": "NGN",
            "minInternationalTransactionAmount": 500.0,
            "maxInternationalTransactionAmount": 300000.0,
            "internationalTransactionFee": 0.00000,
            "internationalTransactionFeeCurrencyCode": "NGN",
            "localTransactionFeePercentage": 0.0,
            "internationalTransactionFeePercentage": 0.0,
            "internationalDiscountPercentage": 8.00000,
            "fx": {
                "rate": 1.0,
                "currencyCode": "NGN"
            },
            "denominationType": "RANGE",
            "localFixedAmounts": null,
            "internationalFixedAmounts": null
        },
        {
            "id": 19,
            "name": "Kenya Electricity Prepaid",
            "countryCode": "KE",
            "countryName": "Kenya",
            "type": "ELECTRICITY_BILL_PAYMENT",
            "serviceType": "PREPAID",
            "localAmountSupported": true,
            "localTransactionCurrencyCode": "KES",
            "minLocalTransactionAmount": 10.0,
            "maxLocalTransactionAmount": 1000000.0,
            "localTransactionFee": 132.47136,
            "localTransactionFeeCurrencyCode": "KES",
            "localDiscountPercentage": 0.00000,
            "internationalAmountSupported": true,
            "internationalTransactionCurrencyCode": "NGN",
            "minInternationalTransactionAmount": 155.0,
            "maxInternationalTransactionAmount": 1.1923081E7,
            "internationalTransactionFee": 1550.00000,
            "internationalTransactionFeeCurrencyCode": "NGN",
            "localTransactionFeePercentage": 0.0,
            "internationalTransactionFeePercentage": 0.0,
            "internationalDiscountPercentage": 0.00000,
            "fx": {
                "rate": 0.071221161,
                "currencyCode": "NGN"
            },
            "denominationType": "RANGE",
            "localFixedAmounts": null,
            "internationalFixedAmounts": null
        },
        {
            "id": 20,
            "name": "Kenya Electricity Postpaid",
            "countryCode": "KE",
            "countryName": "Kenya",
            "type": "ELECTRICITY_BILL_PAYMENT",
            "serviceType": "POSTPAID",
            "localAmountSupported": true,
            "localTransactionCurrencyCode": "KES",
            "minLocalTransactionAmount": 10.0,
            "maxLocalTransactionAmount": 1000000.0,
            "localTransactionFee": 132.47136,
            "localTransactionFeeCurrencyCode": "KES",
            "localDiscountPercentage": 0.00000,
            "internationalAmountSupported": true,
            "internationalTransactionCurrencyCode": "NGN",
            "minInternationalTransactionAmount": 155.0,
            "maxInternationalTransactionAmount": 1.1923081E7,
            "internationalTransactionFee": 1550.00000,
            "internationalTransactionFeeCurrencyCode": "NGN",
            "localTransactionFeePercentage": 0.0,
            "internationalTransactionFeePercentage": 0.0,
            "internationalDiscountPercentage": 0.00000,
            "fx": {
                "rate": 0.071221161,
                "currencyCode": "NGN"
            },
            "denominationType": "RANGE",
            "localFixedAmounts": null,
            "internationalFixedAmounts": null
        }
    ],
    "pageable": {
        "sort": {
            "sorted": false,
            "unsorted": true,
            "empty": true
        },
        "pageNumber": 0,
        "pageSize": 20,
        "offset": 0,
        "unpaged": false,
        "paged": true
    },
    "totalElements": 29,
    "totalPages": 2,
    "last": false,
    "first": true,
    "sort": {
        "sorted": false,
        "unsorted": true,
        "empty": true
    },
    "numberOfElements": 20,
    "size": 20,
    "number": 0,
    "empty": false
}